<?xml version="1.0" encoding="UTF-8" standalone="no"?>
<svg
   xmlns:dc="http://purl.org/dc/elements/1.1/"
   xmlns:cc="http://creativecommons.org/ns#"
   xmlns:rdf="http://www.w3.org/1999/02/22-rdf-syntax-ns#"
   xmlns:svg="http://www.w3.org/2000/svg"
   xmlns="http://www.w3.org/2000/svg"
   xmlns:xlink="http://www.w3.org/1999/xlink"
   xmlns:sodipodi="http://sodipodi.sourceforge.net/DTD/sodipodi-0.dtd"
   xmlns:inkscape="http://www.inkscape.org/namespaces/inkscape"
   width="331.17688pt"
   height="56.393738pt"
   viewBox="0 0 331.17688 56.393738"
   version="1.1"
   id="svg2"
   inkscape:version="0.91 r13725"
   sodipodi:docname="VEH-RRC_formula.svg">
  <metadata
     id="metadata274">
    <rdf:RDF>
      <cc:Work
         rdf:about="">
        <dc:format>image/svg+xml</dc:format>
        <dc:type
           rdf:resource="http://purl.org/dc/dcmitype/StillImage" />
        <dc:title></dc:title>
      </cc:Work>
    </rdf:RDF>
  </metadata>
  <sodipodi:namedview
     pagecolor="#ffffff"
     bordercolor="#666666"
     borderopacity="1"
     objecttolerance="10"
     gridtolerance="10"
     guidetolerance="10"
     inkscape:pageopacity="0"
     inkscape:pageshadow="2"
     inkscape:window-width="1366"
     inkscape:window-height="706"
     id="namedview272"
     showgrid="false"
     fit-margin-top="0"
     fit-margin-left="0"
     fit-margin-right="0"
     fit-margin-bottom="0"
     inkscape:zoom="0.34962963"
     inkscape:cx="212.5"
     inkscape:cy="-6.5507889"
     inkscape:window-x="-8"
     inkscape:window-y="-8"
     inkscape:window-maximized="1"
     inkscape:current-layer="svg2" />
  <defs
     id="defs4">
    <g
       id="g6">
      <symbol
         overflow="visible"
         id="glyph0-0"
         style="overflow:visible">
        <path
           style="stroke:none"
           d="m 4.984375,-4.28125 0,-0.1875 C 4.984375,-4.601563 4.988281,-4.722656 5,-4.828125 5.019531,-4.941406 5.0625,-5.054688 5.125,-5.171875 5.195313,-5.292969 5.289063,-5.4375 5.40625,-5.59375 5.527344,-5.746094 5.703125,-5.941406 5.921875,-6.171875 6.054688,-6.316406 6.175781,-6.457031 6.28125,-6.59375 6.394531,-6.726563 6.488281,-6.867188 6.5625,-7.015625 6.644531,-7.167969 6.707031,-7.332031 6.75,-7.5 6.800781,-7.664063 6.828125,-7.851563 6.828125,-8.0625 6.828125,-8.496094 6.726563,-8.835938 6.53125,-9.078125 6.34375,-9.316406 6.066406,-9.4375 5.703125,-9.4375 c -0.1875,0 -0.355469,0.035156 -0.5,0.09375 -0.136719,0.054687 -0.257812,0.132812 -0.359375,0.234375 -0.105469,0.105469 -0.195312,0.230469 -0.265625,0.375 -0.074219,0.148437 -0.136719,0.308594 -0.1875,0.484375 l -0.84375,0 0,-1.140625 c 0.339844,-0.175781 0.71875,-0.332031 1.125,-0.46875 0.402344,-0.132813 0.800781,-0.203125 1.1875,-0.203125 0.414063,0 0.765625,0.05078 1.046875,0.140625 0.289063,0.085937 0.523438,0.199219 0.703125,0.34375 0.183594,0.148437 0.320313,0.324219 0.40625,0.53125 0.082031,0.210937 0.125,0.433594 0.125,0.671875 0,0.21875 -0.027344,0.425781 -0.078125,0.609375 -0.042969,0.179687 -0.117187,0.355469 -0.21875,0.53125 C 7.738281,-7.054688 7.597656,-6.863281 7.421875,-6.65625 7.242188,-6.445313 7.027344,-6.210938 6.78125,-5.953125 6.59375,-5.753906 6.441406,-5.589844 6.328125,-5.46875 6.210938,-5.34375 6.121094,-5.222656 6.0625,-5.109375 6.007813,-4.992188 5.972656,-4.871094 5.953125,-4.75 c -0.023437,0.117187 -0.03125,0.257812 -0.03125,0.421875 l 0,0.046875 z m 1.09375,0.96875 0,1.40625 -1.265625,0 0,-1.40625 z m 3.1875,2.5 0,-10.359375 -6.6875,0 0,10.359375 z m 0.90625,-11.171875 0,11.984375 -8.5,0 0,-11.984375 z"
           id="path9"
           inkscape:connector-curvature="0" />
      </symbol>
      <symbol
         overflow="visible"
         id="glyph0-1"
         style="overflow:visible">
        <path
           style="stroke:none"
           d="m 7.25,-5.4375 c 0.277344,0.210937 0.503906,0.460937 0.671875,0.75 0.175781,0.292969 0.316406,0.699219 0.421875,1.21875 l 0.203125,1.03125 c 0.058594,0.324219 0.132813,0.617187 0.21875,0.875 0.082031,0.25 0.179688,0.457031 0.296875,0.609375 0.113281,0.148437 0.238281,0.261719 0.375,0.34375 0.144531,0.074219 0.359375,0.132812 0.640625,0.171875 L 9.984375,0 7.546875,0 c -0.1875,-0.519531 -0.355469,-1.140625 -0.5,-1.859375 l -0.390625,-1.875 C 6.59375,-4.042969 6.511719,-4.3125 6.421875,-4.53125 6.335938,-4.757813 6.230469,-4.929688 6.109375,-5.046875 5.984375,-5.167969 5.835938,-5.25 5.671875,-5.28125 c -0.167969,-0.039063 -0.378906,-0.0625 -0.625,-0.0625 l -1,0 L 3.4375,-2.5625 c -0.054687,0.230469 -0.089844,0.414062 -0.109375,0.546875 -0.023437,0.136719 -0.042969,0.285156 -0.0625,0.4375 C 3.253906,-1.429688 3.25,-1.300781 3.25,-1.1875 c 0,0.179687 0.023438,0.320312 0.078125,0.421875 0.058594,0.105469 0.148438,0.183594 0.265625,0.234375 0.121094,0.042969 0.328125,0.074219 0.609375,0.09375 L 4.109375,0 0.5,0 0.59375,-0.4375 c 0.226563,-0.027344 0.394531,-0.082031 0.5,-0.15625 C 1.207031,-0.675781 1.300781,-0.785156 1.375,-0.921875 1.457031,-1.066406 1.53125,-1.238281 1.59375,-1.4375 1.652344,-1.644531 1.75,-2.039063 1.875,-2.625 l 1.5,-6.765625 c 0.121094,-0.582031 0.1875,-1.046875 0.1875,-1.390625 0,-0.277344 -0.070312,-0.476563 -0.203125,-0.59375 -0.125,-0.113281 -0.347656,-0.175781 -0.65625,-0.1875 L 2.796875,-12 6.71875,-12 c 0.613281,0 1.117188,0.03906 1.515625,0.109375 0.394531,0.07422 0.726563,0.183594 1,0.328125 0.277344,0.148437 0.515625,0.339844 0.703125,0.578125 0.183594,0.230469 0.328125,0.492187 0.421875,0.78125 0.08984,0.28125 0.140625,0.589844 0.140625,0.921875 0,0.90625 -0.277344,1.679687 -0.828125,2.3125 -0.554687,0.625 -1.363281,1.105469 -2.421875,1.4375 z m -2,-0.65625 c 0.851563,0 1.523438,-0.113281 2.015625,-0.34375 C 7.753906,-6.664063 8.144531,-7.039063 8.4375,-7.5625 8.726563,-8.082031 8.875,-8.644531 8.875,-9.25 8.875,-9.507813 8.847656,-9.734375 8.796875,-9.921875 8.753906,-10.117188 8.691406,-10.28125 8.609375,-10.40625 8.535156,-10.539063 8.433594,-10.65625 8.3125,-10.75 8.195313,-10.851563 8.050781,-10.941406 7.875,-11.015625 c -0.167969,-0.07031 -0.371094,-0.125 -0.609375,-0.15625 -0.230469,-0.02734 -0.542969,-0.04687 -0.9375,-0.04687 -0.3125,0 -0.644531,0.01172 -0.984375,0.03125 l -1.125,5.09375 z"
           id="path12"
           inkscape:connector-curvature="0" />
      </symbol>
      <symbol
         overflow="visible"
         id="glyph0-2"
         style="overflow:visible">
        <path
           style="stroke:none"
           d="m 10.484375,-11.6875 -0.53125,2.375 -0.84375,0 C 9.054688,-10.027344 8.894531,-10.546875 8.625,-10.859375 8.363281,-11.179688 7.933594,-11.34375 7.34375,-11.34375 c -0.804687,0 -1.554687,0.410156 -2.25,1.21875 -0.699219,0.804687 -1.253906,1.871094 -1.65625,3.203125 -0.398437,1.324219 -0.59375,2.554687 -0.59375,3.6875 0,0.886719 0.15625,1.542969 0.46875,1.96875 0.308594,0.417969 0.796875,0.625 1.453125,0.625 0.445313,0 0.832031,-0.0625 1.15625,-0.1875 C 6.253906,-0.960938 6.5625,-1.1875 6.84375,-1.5 7.132813,-1.808594 7.421875,-2.25 7.703125,-2.8125 l 0.84375,0 L 8,-0.3125 C 6.90625,-0.0078125 5.757813,0.140625 4.5625,0.140625 3.457031,0.140625 2.617188,-0.175781 2.046875,-0.8125 1.472656,-1.445313 1.1875,-2.375 1.1875,-3.59375 c 0,-0.851563 0.148438,-1.84375 0.453125,-2.96875 0.308594,-1.121094 0.75,-2.109375 1.3125,-2.953125 0.558594,-0.851563 1.222656,-1.503906 1.984375,-1.953125 0.769531,-0.445313 1.617188,-0.671875 2.546875,-0.671875 0.527344,0 1.019531,0.03906 1.46875,0.109375 0.457031,0.0625 0.96875,0.179687 1.53125,0.34375 z"
           id="path15"
           inkscape:connector-curvature="0" />
      </symbol>
      <symbol
         overflow="visible"
         id="glyph0-3"
         style="overflow:visible">
        <path
           style="stroke:none"
           d="m 1.3125,-6.375 0,-1.171875 10.828125,0 0,1.171875 z m 0,3.640625 0,-1.171875 10.828125,0 0,1.171875 z M 12.5,-5.140625 Z"
           id="path18"
           inkscape:connector-curvature="0" />
      </symbol>
      <symbol
         overflow="visible"
         id="glyph0-4"
         style="overflow:visible">
        <path
           style="stroke:none"
           d="M 4.109375,-21.171875 14.59375,-6.9375 l 0,1.0625 L 3.265625,9.5 l 15.25,0 c 0.675781,0 1.191406,-0.242187 1.546875,-0.71875 0.363281,-0.480469 0.671875,-1.542969 0.921875,-3.1875 l 1.3125,0 -0.453125,6.453125 -21.609375,0 0,-0.875 12.3125,-16.6875 -11.953125,-15.96875 0,-0.84375 21.21875,0 0,5.203125 -1.15625,0 c -0.136719,-1.246094 -0.414062,-2.234375 -0.828125,-2.953125 -0.40625,-0.726563 -1.027344,-1.09375 -1.859375,-1.09375 z"
           id="path21"
           inkscape:connector-curvature="0" />
      </symbol>
      <symbol
         overflow="visible"
         id="glyph0-5"
         style="overflow:visible">
        <path
           style="stroke:none"
           d="m 6.625,-6.265625 c -0.0625,-0.519531 -0.238281,-0.914063 -0.515625,-1.1875 -0.273437,-0.269531 -0.710937,-0.40625 -1.3125,-0.40625 -0.460937,0 -0.835937,0.121094 -1.125,0.359375 C 3.390625,-7.257813 3.25,-6.945313 3.25,-6.5625 c 0,0.210937 0.035156,0.398437 0.109375,0.5625 0.070313,0.15625 0.21875,0.335937 0.4375,0.53125 0.214844,0.1875 0.5625,0.425781 1.03125,0.703125 0.371094,0.21875 0.671875,0.425781 0.890625,0.609375 0.226563,0.1875 0.40625,0.378906 0.53125,0.5625 0.121094,0.179687 0.21875,0.371094 0.28125,0.578125 0.058594,0.199219 0.09375,0.441406 0.09375,0.71875 0,0.523437 -0.144531,0.972656 -0.421875,1.34375 -0.28125,0.375 -0.664062,0.660156 -1.140625,0.84375 C 4.582031,0.0664063 4.039063,0.15625 3.4375,0.15625 2.945313,0.15625 2.464844,0.113281 2,0.03125 1.53125,-0.0390625 1.007813,-0.160156 0.4375,-0.328125 L 0.859375,-2.25 l 0.6875,0 c 0.019531,0.5625 0.175781,0.992187 0.46875,1.28125 0.300781,0.28125 0.769531,0.421875 1.40625,0.421875 0.550781,0 0.984375,-0.125 1.296875,-0.375 0.308594,-0.246094 0.46875,-0.601563 0.46875,-1.0625 0,-0.257813 -0.042969,-0.484375 -0.125,-0.671875 C 4.976563,-2.839844 4.832031,-3.023438 4.625,-3.203125 4.425781,-3.378906 4.113281,-3.601563 3.6875,-3.875 3.226563,-4.144531 2.867188,-4.390625 2.609375,-4.609375 2.359375,-4.835938 2.164063,-5.082031 2.03125,-5.34375 c -0.125,-0.257813 -0.1875,-0.554688 -0.1875,-0.890625 0,-0.464844 0.125,-0.875 0.375,-1.21875 0.246094,-0.351563 0.601563,-0.625 1.0625,-0.8125 0.464844,-0.183594 1.007813,-0.28125 1.625,-0.28125 0.539063,0 1.035156,0.039062 1.484375,0.109375 0.445313,0.0625 0.894531,0.175781 1.34375,0.328125 l -0.390625,1.84375 z"
           id="path24"
           inkscape:connector-curvature="0" />
      </symbol>
      <symbol
         overflow="visible"
         id="glyph0-6"
         style="overflow:visible">
        <path
           style="stroke:none"
           d="m 2.734375,-2.046875 0,2.046875 -1.78125,0 0,-2.046875 z"
           id="path27"
           inkscape:connector-curvature="0" />
      </symbol>
      <symbol
         overflow="visible"
         id="glyph0-7"
         style="overflow:visible">
        <path
           style="stroke:none"
           d="m 3.875,-6.171875 c 0.527344,-0.800781 1.0625,-1.394531 1.59375,-1.78125 0.539063,-0.394531 1.082031,-0.59375 1.625,-0.59375 0.558594,0 0.988281,0.164062 1.28125,0.484375 0.289063,0.324219 0.4375,0.785156 0.4375,1.375 l 0,0.125 c 0,0.042969 0,0.089844 0,0.140625 0.496094,-0.714844 1,-1.25 1.5,-1.59375 0.496094,-0.351563 1.019531,-0.53125 1.5625,-0.53125 0.539063,0 0.957031,0.160156 1.25,0.46875 0.289063,0.3125 0.4375,0.753906 0.4375,1.3125 0,0.367187 -0.08594,0.894531 -0.25,1.578125 l -0.578125,2.296875 C 12.578125,-2.253906 12.5,-1.800781 12.5,-1.53125 c 0,0.230469 0.03516,0.398437 0.109375,0.5 0.08203,0.105469 0.203125,0.15625 0.359375,0.15625 0.175781,0 0.363281,-0.066406 0.5625,-0.203125 C 13.726563,-1.222656 14.007813,-1.5 14.375,-1.90625 l 0.5,0.484375 c -0.5,0.542969 -0.941406,0.941406 -1.3125,1.1875 -0.375,0.2460938 -0.804687,0.375 -1.28125,0.375 -0.386719,0 -0.695312,-0.13671875 -0.921875,-0.40625 -0.230469,-0.269531 -0.34375,-0.617188 -0.34375,-1.046875 0,-0.371094 0.09766,-0.929688 0.296875,-1.671875 l 0.390625,-1.53125 c 0.132813,-0.539063 0.222656,-0.941406 0.265625,-1.203125 0.05078,-0.269531 0.07813,-0.488281 0.07813,-0.65625 0,-0.402344 -0.07031,-0.695313 -0.203125,-0.875 -0.136719,-0.175781 -0.355469,-0.265625 -0.65625,-0.265625 -0.25,0 -0.519531,0.097656 -0.796875,0.28125 C 10.109375,-7.054688 9.808594,-6.769531 9.5,-6.375 c -0.3125,0.386719 -0.570312,0.773437 -0.765625,1.15625 -0.1875,0.375 -0.347656,0.835937 -0.46875,1.375 L 7.46875,0 5.953125,0 6.96875,-4.46875 C 7.082031,-5.007813 7.160156,-5.410156 7.203125,-5.671875 7.253906,-5.929688 7.28125,-6.15625 7.28125,-6.34375 c 0,-0.425781 -0.082031,-0.726563 -0.234375,-0.90625 -0.148437,-0.175781 -0.378906,-0.265625 -0.6875,-0.265625 -0.230469,0 -0.488281,0.097656 -0.765625,0.28125 C 5.3125,-7.054688 5.007813,-6.757813 4.6875,-6.34375 4.363281,-5.9375 4.105469,-5.542969 3.921875,-5.171875 3.742188,-4.796875 3.589844,-4.339844 3.46875,-3.8125 L 2.640625,0 1.109375,0 2.40625,-5.578125 c 0.121094,-0.558594 0.1875,-0.992188 0.1875,-1.296875 0,-0.226563 -0.042969,-0.394531 -0.125,-0.5 C 2.394531,-7.488281 2.277344,-7.546875 2.125,-7.546875 c -0.1875,0 -0.386719,0.082031 -0.59375,0.234375 -0.199219,0.148437 -0.472656,0.417969 -0.8125,0.8125 l -0.5,-0.5 c 0.507813,-0.539063 0.945313,-0.929688 1.3125,-1.171875 0.371094,-0.246094 0.785156,-0.375 1.234375,-0.375 0.371094,0 0.664063,0.121094 0.875,0.359375 0.214844,0.242187 0.328125,0.558594 0.328125,0.953125 0,0.324219 -0.070312,0.667969 -0.203125,1.03125 z"
           id="path30"
           inkscape:connector-curvature="0" />
      </symbol>
      <symbol
         overflow="visible"
         id="glyph0-8"
         style="overflow:visible">
        <path
           style="stroke:none"
           d="M 2.15625,0.75 C 2.039063,0.882813 1.945313,1.019531 1.875,1.15625 1.800781,1.289063 1.742188,1.414063 1.703125,1.53125 1.671875,1.652344 1.65625,1.804688 1.65625,1.984375 1.65625,2.417969 1.8125,2.738281 2.125,2.9375 2.445313,3.144531 2.925781,3.25 3.5625,3.25 c 0.726563,0 1.304688,-0.167969 1.734375,-0.5 0.433594,-0.324219 0.8125,-0.847656 1.125,-1.5625 0.308594,-0.71875 0.613281,-1.804688 0.90625,-3.265625 l -0.125,-0.03125 C 6.640625,-1.328125 6.113281,-0.757813 5.625,-0.40625 5.132813,-0.0507813 4.605469,0.125 4.046875,0.125 3.410156,0.125 2.914063,-0.113281 2.5625,-0.59375 2.207031,-1.070313 2.03125,-1.753906 2.03125,-2.640625 c 0,-1.007813 0.191406,-1.972656 0.578125,-2.890625 0.394531,-0.925781 0.941406,-1.660156 1.640625,-2.203125 0.695313,-0.539063 1.472656,-0.8125 2.328125,-0.8125 0.371094,0 0.722656,0.050781 1.046875,0.140625 0.332031,0.085937 0.664063,0.230469 1,0.4375 L 9.4375,-8.546875 10,-8.40625 9.09375,-4.3125 C 9.019531,-4.03125 8.871094,-3.304688 8.65625,-2.140625 8.40625,-0.910156 8.207031,-0.0390625 8.0625,0.46875 7.914063,0.976563 7.726563,1.441406 7.5,1.859375 7.28125,2.273438 6.992188,2.640625 6.640625,2.953125 c -0.34375,0.308594 -0.773437,0.550781 -1.28125,0.71875 -0.5,0.164063 -1.089844,0.25 -1.765625,0.25 C 1.375,3.921875 0.265625,3.277344 0.265625,2 0.265625,1.664063 0.363281,1.363281 0.5625,1.09375 0.757813,0.820313 1.078125,0.539063 1.515625,0.25 Z m 2.515625,-1.65625 c 0.300781,0 0.597656,-0.097656 0.890625,-0.296875 0.300781,-0.207031 0.617188,-0.535156 0.953125,-0.984375 0.332031,-0.445313 0.59375,-0.867188 0.78125,-1.265625 0.183594,-0.402344 0.347656,-0.910156 0.484375,-1.515625 0.132813,-0.601563 0.203125,-1.128906 0.203125,-1.578125 0,-0.457031 -0.101562,-0.789063 -0.296875,-1 C 7.5,-7.753906 7.175781,-7.859375 6.71875,-7.859375 6.125,-7.859375 5.585938,-7.613281 5.109375,-7.125 4.640625,-6.644531 4.269531,-5.992188 4,-5.171875 c -0.273437,0.8125 -0.40625,1.632812 -0.40625,2.453125 0,0.605469 0.082031,1.058594 0.25,1.359375 0.175781,0.304687 0.453125,0.453125 0.828125,0.453125 z"
           id="path33"
           inkscape:connector-curvature="0" />
      </symbol>
      <symbol
         overflow="visible"
         id="glyph0-9"
         style="overflow:visible">
        <path
           style="stroke:none"
           d="m 8.421875,-1.453125 c 0.914063,-1.300781 1.609375,-2.4375 2.078125,-3.40625 0.476563,-0.964844 0.71875,-1.757813 0.71875,-2.375 0,-0.269531 -0.05859,-0.457031 -0.171875,-0.5625 -0.117187,-0.101563 -0.316406,-0.160156 -0.59375,-0.171875 l 0.07813,-0.4375 2.28125,0 0.234375,0.4375 c -0.210937,0.523437 -0.378906,0.925781 -0.5,1.203125 -0.125,0.28125 -0.289062,0.621094 -0.484375,1.015625 -0.199219,0.398437 -0.414062,0.792969 -0.640625,1.1875 -0.21875,0.398437 -0.480469,0.832031 -0.78125,1.296875 -0.292969,0.46875 -0.628906,0.988281 -1,1.546875 -0.375,0.554687 -0.820312,1.175781 -1.328125,1.859375 l -1.046875,0 L 6.90625,-3.53125 C 6.875,-3.820313 6.839844,-4.195313 6.8125,-4.65625 6.78125,-5.121094 6.753906,-5.484375 6.734375,-5.734375 l -0.09375,0 c -0.3125,0.773437 -0.746094,1.636719 -1.296875,2.59375 -0.542969,0.960937 -1.214844,2.054687 -2.015625,3.28125 l -1.171875,0 -0.671875,-6.625 c -0.03125,-0.332031 -0.074219,-0.601563 -0.125,-0.8125 C 1.304688,-7.511719 1.214844,-7.675781 1.09375,-7.78125 0.96875,-7.882813 0.761719,-7.945313 0.484375,-7.96875 l 0.09375,-0.4375 2.3125,0 0.515625,6.9375 c 0.832031,-1.339844 1.429688,-2.363281 1.796875,-3.0625 0.363281,-0.707031 0.632813,-1.316406 0.8125,-1.828125 0.175781,-0.519531 0.3125,-1.054688 0.40625,-1.609375 l 0.09375,-0.4375 1.265625,0 z"
           id="path36"
           inkscape:connector-curvature="0" />
      </symbol>
      <symbol
         overflow="visible"
         id="glyph0-10"
         style="overflow:visible">
        <path
           style="stroke:none"
           d="m 3.4375,-2.5625 c -0.125,0.554687 -0.1875,1.011719 -0.1875,1.375 0,0.179687 0.023438,0.320312 0.078125,0.421875 0.058594,0.105469 0.148438,0.183594 0.265625,0.234375 0.121094,0.042969 0.328125,0.074219 0.609375,0.09375 L 4.109375,0 0.5,0 0.59375,-0.4375 c 0.226563,-0.027344 0.394531,-0.082031 0.5,-0.15625 C 1.207031,-0.675781 1.300781,-0.785156 1.375,-0.921875 1.457031,-1.066406 1.53125,-1.238281 1.59375,-1.4375 1.652344,-1.644531 1.75,-2.039063 1.875,-2.625 l 1.5,-6.765625 c 0.121094,-0.582031 0.1875,-1.046875 0.1875,-1.390625 0,-0.277344 -0.070312,-0.476563 -0.203125,-0.59375 -0.125,-0.113281 -0.347656,-0.175781 -0.65625,-0.1875 L 2.796875,-12 l 7.9375,0 -0.609375,2.703125 -0.84375,0 c -0.023437,-0.445313 -0.058594,-0.800781 -0.109375,-1.0625 -0.054687,-0.269531 -0.128906,-0.457031 -0.21875,-0.5625 C 8.867188,-11.035156 8.757813,-11.113281 8.625,-11.15625 8.5,-11.195313 8.304688,-11.21875 8.046875,-11.21875 l -2.703125,0 -1.046875,4.78125 1.640625,0 c 0.257813,0 0.472656,-0.035156 0.640625,-0.109375 0.175781,-0.070313 0.335938,-0.195313 0.484375,-0.375 C 7.207031,-7.105469 7.390625,-7.425781 7.609375,-7.875 l 0.796875,0 -0.859375,3.703125 -0.765625,0 c 0,-0.582031 -0.023437,-0.945313 -0.0625,-1.09375 C 6.675781,-5.417969 6.601563,-5.523438 6.5,-5.578125 6.394531,-5.636719 6.179688,-5.671875 5.859375,-5.671875 l -1.734375,0 z"
           id="path39"
           inkscape:connector-curvature="0" />
      </symbol>
      <symbol
         overflow="visible"
         id="glyph1-0"
         style="overflow:visible">
        <path
           style="stroke:none"
           d="m 3.59375,-3.09375 0,-0.140625 c 0,-0.089844 0.00391,-0.175781 0.015625,-0.25 0.019531,-0.082031 0.050781,-0.164063 0.09375,-0.25 C 3.753906,-3.824219 3.820313,-3.925781 3.90625,-4.03125 3.996094,-4.144531 4.117188,-4.285156 4.265625,-4.453125 4.367188,-4.554688 4.457031,-4.65625 4.53125,-4.75 4.613281,-4.851563 4.679688,-4.957031 4.734375,-5.0625 4.792969,-5.175781 4.84375,-5.289063 4.875,-5.40625 c 0.027344,-0.121094 0.046875,-0.265625 0.046875,-0.421875 0,-0.308594 -0.070312,-0.550781 -0.203125,-0.71875 C 4.582031,-6.722656 4.382813,-6.8125 4.125,-6.8125 3.988281,-6.8125 3.867188,-6.789063 3.765625,-6.75 3.660156,-6.707031 3.570313,-6.648438 3.5,-6.578125 c -0.074219,0.074219 -0.144531,0.167969 -0.203125,0.28125 -0.054687,0.105469 -0.097656,0.222656 -0.125,0.34375 l -0.609375,0 0,-0.828125 c 0.246094,-0.121094 0.519531,-0.234375 0.8125,-0.328125 0.289063,-0.101563 0.578125,-0.15625 0.859375,-0.15625 0.289063,0 0.539063,0.035156 0.75,0.09375 0.214844,0.0625 0.390625,0.152344 0.515625,0.265625 0.132813,0.105469 0.226563,0.230469 0.28125,0.375 0.058594,0.148437 0.09375,0.308594 0.09375,0.484375 0,0.15625 -0.019531,0.304687 -0.046875,0.4375 -0.03125,0.125 -0.089844,0.257812 -0.171875,0.390625 -0.074219,0.125 -0.175781,0.269531 -0.296875,0.421875 -0.125,0.148437 -0.285156,0.316406 -0.46875,0.5 -0.136719,0.136719 -0.246094,0.253906 -0.328125,0.34375 -0.074219,0.09375 -0.136719,0.183594 -0.1875,0.265625 -0.042969,0.085937 -0.074219,0.167969 -0.09375,0.25 -0.011719,0.085937 -0.015625,0.191406 -0.015625,0.3125 l 0,0.03125 z m 0.796875,0.703125 0,1.015625 -0.921875,0 0,-1.015625 z m 2.3125,1.796875 0,-7.46875 -4.84375,0 0,7.46875 z m 0.640625,-8.0625 0,8.65625 -6.140625,0 0,-8.65625 z"
           id="path42"
           inkscape:connector-curvature="0" />
      </symbol>
      <symbol
         overflow="visible"
         id="glyph1-1"
         style="overflow:visible">
        <path
           style="stroke:none"
           d="m 3.953125,-8.96875 -0.3125,1.359375 -1.265625,0 0.296875,-1.359375 z m -1.53125,6.78125 c -0.0625,0.25 -0.105469,0.449219 -0.125,0.59375 -0.023437,0.148437 -0.03125,0.285156 -0.03125,0.40625 0,0.15625 0.03125,0.273437 0.09375,0.34375 0.058594,0.074219 0.160156,0.109375 0.296875,0.109375 0.070313,0 0.144531,-0.015625 0.21875,-0.046875 0.082031,-0.027344 0.164063,-0.078125 0.25,-0.140625 0.082031,-0.058594 0.175781,-0.140625 0.28125,-0.234375 0.101563,-0.101563 0.222656,-0.226563 0.359375,-0.375 L 4.1875,-1.109375 c -0.21875,0.230469 -0.425781,0.425781 -0.609375,0.578125 -0.179687,0.148437 -0.347656,0.273437 -0.5,0.375 -0.15625,0.09375 -0.316406,0.16015625 -0.46875,0.203125 -0.15625,0.0390625 -0.324219,0.0625 -0.5,0.0625 -0.15625,0 -0.304687,-0.0351562 -0.4375,-0.09375 C 1.546875,-0.0351563 1.433594,-0.113281 1.34375,-0.21875 1.25,-0.320313 1.175781,-0.445313 1.125,-0.59375 1.070313,-0.738281 1.046875,-0.894531 1.046875,-1.0625 1.046875,-1.207031 1.0625,-1.378906 1.09375,-1.578125 1.132813,-1.785156 1.179688,-2.007813 1.234375,-2.25 1.285156,-2.496094 1.34375,-2.753906 1.40625,-3.015625 1.464844,-3.285156 1.53125,-3.550781 1.59375,-3.8125 1.652344,-4.082031 1.707031,-4.335938 1.75,-4.578125 1.800781,-4.816406 1.835938,-5.039063 1.859375,-5.25 1.867188,-5.277344 1.875,-5.3125 1.875,-5.34375 c 0,-0.027344 0,-0.054688 0,-0.078125 C 1.863281,-5.585938 1.804688,-5.707031 1.703125,-5.78125 1.597656,-5.863281 1.402344,-5.910156 1.125,-5.921875 l 0.078125,-0.421875 1.84375,-0.078125 0.3125,0 z"
           id="path45"
           inkscape:connector-curvature="0" />
      </symbol>
      <symbol
         overflow="visible"
         id="glyph1-2"
         style="overflow:visible">
        <path
           style="stroke:none"
           d="m 1.078125,-4.609375 0,-0.96875 7.3125,0 0,0.96875 z m 0,2.765625 0,-0.96875 7.3125,0 0,0.96875 z"
           id="path48"
           inkscape:connector-curvature="0" />
      </symbol>
      <symbol
         overflow="visible"
         id="glyph1-3"
         style="overflow:visible">
        <path
           style="stroke:none"
           d="m 4.640625,-1.671875 c 0,0.125 0.00391,0.242187 0.015625,0.34375 0.00781,0.09375 0.019531,0.175781 0.03125,0.234375 0.019531,0.0625 0.046875,0.121094 0.078125,0.171875 0.027344,0.042969 0.066406,0.082031 0.109375,0.109375 0.050781,0.054687 0.117188,0.097656 0.203125,0.125 0.089844,0.03125 0.203125,0.058594 0.328125,0.078125 0.132813,0.011719 0.289063,0.023437 0.46875,0.03125 0.183594,0.011719 0.410156,0.023437 0.671875,0.03125 l 0,0.546875 -5.03125,0 0,-0.546875 c 0.246094,-0.007813 0.457031,-0.019531 0.625,-0.03125 C 2.316406,-0.585938 2.46875,-0.601563 2.59375,-0.625 2.714844,-0.644531 2.816406,-0.664063 2.890625,-0.6875 2.960938,-0.707031 3.023438,-0.738281 3.078125,-0.78125 3.136719,-0.808594 3.191406,-0.847656 3.234375,-0.890625 3.273438,-0.941406 3.304688,-1 3.328125,-1.0625 c 0.027344,-0.070313 0.050781,-0.15625 0.0625,-0.25 0.019531,-0.089844 0.03125,-0.210938 0.03125,-0.359375 l 0,-4.5625 C 3.421875,-6.386719 3.382813,-6.5 3.3125,-6.5625 3.25,-6.632813 3.160156,-6.671875 3.046875,-6.671875 c -0.136719,0 -0.335937,0.070312 -0.59375,0.203125 -0.25,0.136719 -0.585937,0.335937 -1,0.59375 C 1.398438,-5.964844 1.347656,-6.0625 1.296875,-6.15625 1.253906,-6.257813 1.207031,-6.363281 1.15625,-6.46875 1.683594,-6.746094 2.207031,-7.03125 2.71875,-7.3125 3.226563,-7.601563 3.75,-7.890625 4.28125,-8.171875 l 0.390625,0 c -0.011719,0.230469 -0.023437,0.441406 -0.03125,0.625 0,0.179687 0,0.355469 0,0.53125 0,0.179687 0,0.351562 0,0.515625 z"
           id="path51"
           inkscape:connector-curvature="0" />
      </symbol>
      <symbol
         overflow="visible"
         id="glyph2-0"
         style="overflow:visible">
        <path
           style="stroke:none"
           d="m 3.59375,-3.09375 0,-0.140625 c 0,-0.089844 0.00391,-0.175781 0.015625,-0.25 0.019531,-0.082031 0.050781,-0.164063 0.09375,-0.25 C 3.753906,-3.824219 3.820313,-3.925781 3.90625,-4.03125 3.996094,-4.144531 4.117188,-4.285156 4.265625,-4.453125 4.367188,-4.554688 4.457031,-4.65625 4.53125,-4.75 4.613281,-4.851563 4.679688,-4.957031 4.734375,-5.0625 4.792969,-5.175781 4.84375,-5.289063 4.875,-5.40625 c 0.027344,-0.121094 0.046875,-0.265625 0.046875,-0.421875 0,-0.308594 -0.070312,-0.550781 -0.203125,-0.71875 C 4.582031,-6.722656 4.382813,-6.8125 4.125,-6.8125 3.988281,-6.8125 3.867188,-6.789063 3.765625,-6.75 3.660156,-6.707031 3.570313,-6.648438 3.5,-6.578125 c -0.074219,0.074219 -0.144531,0.167969 -0.203125,0.28125 -0.054687,0.105469 -0.097656,0.222656 -0.125,0.34375 l -0.609375,0 0,-0.828125 c 0.246094,-0.121094 0.519531,-0.234375 0.8125,-0.328125 0.289063,-0.101563 0.578125,-0.15625 0.859375,-0.15625 0.289063,0 0.539063,0.035156 0.75,0.09375 0.214844,0.0625 0.390625,0.152344 0.515625,0.265625 0.132813,0.105469 0.226563,0.230469 0.28125,0.375 0.058594,0.148437 0.09375,0.308594 0.09375,0.484375 0,0.15625 -0.019531,0.304687 -0.046875,0.4375 -0.03125,0.125 -0.089844,0.257812 -0.171875,0.390625 -0.074219,0.125 -0.175781,0.269531 -0.296875,0.421875 -0.125,0.148437 -0.285156,0.316406 -0.46875,0.5 -0.136719,0.136719 -0.246094,0.253906 -0.328125,0.34375 -0.074219,0.09375 -0.136719,0.183594 -0.1875,0.265625 -0.042969,0.085937 -0.074219,0.167969 -0.09375,0.25 -0.011719,0.085937 -0.015625,0.191406 -0.015625,0.3125 l 0,0.03125 z m 0.796875,0.703125 0,1.015625 -0.921875,0 0,-1.015625 z m 2.3125,1.796875 0,-7.46875 -4.84375,0 0,7.46875 z m 0.640625,-8.0625 0,8.65625 -6.140625,0 0,-8.65625 z"
           id="path54"
           inkscape:connector-curvature="0" />
      </symbol>
      <symbol
         overflow="visible"
         id="glyph2-1"
         style="overflow:visible">
        <path
           style="stroke:none"
           d="M 3.28125,-4.796875 C 3.683594,-5.355469 4.085938,-5.78125 4.484375,-6.0625 c 0.402344,-0.277344 0.820313,-0.421875 1.25,-0.421875 0.445313,0 0.78125,0.128906 1,0.375 0.226563,0.242187 0.34375,0.574219 0.34375,1 0,0.136719 -0.023437,0.324219 -0.0625,0.5625 -0.03125,0.230469 -0.082031,0.480469 -0.140625,0.75 -0.0625,0.273437 -0.132812,0.554687 -0.203125,0.84375 -0.0625,0.292969 -0.128906,0.566406 -0.1875,0.8125 -0.054687,0.242187 -0.101562,0.449219 -0.140625,0.625 -0.03125,0.179687 -0.046875,0.289062 -0.046875,0.328125 0,0.15625 0.023438,0.273437 0.078125,0.34375 0.058594,0.074219 0.160156,0.109375 0.296875,0.109375 0.070313,0 0.144531,-0.015625 0.21875,-0.046875 0.082031,-0.027344 0.164063,-0.078125 0.25,-0.140625 0.089844,-0.058594 0.1875,-0.140625 0.28125,-0.234375 0.101563,-0.101563 0.21875,-0.226563 0.34375,-0.375 l 0.4375,0.421875 c -0.210937,0.21875 -0.402344,0.410156 -0.578125,0.5625 -0.167969,0.148437 -0.335937,0.273437 -0.5,0.375 C 6.96875,-0.078125 6.804688,-0.0078125 6.640625,0.03125 6.484375,0.0820313 6.308594,0.109375 6.125,0.109375 5.976563,0.109375 5.835938,0.0742188 5.703125,0.015625 5.578125,-0.0351563 5.464844,-0.113281 5.375,-0.21875 5.28125,-0.320313 5.207031,-0.441406 5.15625,-0.578125 5.101563,-0.722656 5.078125,-0.878906 5.078125,-1.046875 c 0,-0.175781 0.015625,-0.375 0.046875,-0.59375 0.039063,-0.226563 0.097656,-0.476563 0.171875,-0.75 0.082031,-0.277344 0.15625,-0.546875 0.21875,-0.796875 0.058594,-0.246094 0.113281,-0.476563 0.15625,-0.6875 0.050781,-0.214844 0.09375,-0.410156 0.125,-0.578125 C 5.824219,-4.617188 5.84375,-4.757813 5.84375,-4.875 5.84375,-5.132813 5.789063,-5.320313 5.6875,-5.4375 5.59375,-5.558594 5.433594,-5.625 5.21875,-5.625 c -0.136719,0 -0.277344,0.035156 -0.421875,0.09375 -0.148437,0.0625 -0.292969,0.160156 -0.4375,0.28125 -0.148437,0.117187 -0.292969,0.253906 -0.4375,0.40625 -0.136719,0.15625 -0.269531,0.332031 -0.390625,0.515625 -0.117187,0.179687 -0.222656,0.367187 -0.3125,0.5625 C 3.125,-3.578125 3.054688,-3.382813 3.015625,-3.1875 L 2.3125,0 1.0625,0 2.015625,-4.140625 C 2.066406,-4.355469 2.101563,-4.550781 2.125,-4.71875 c 0.027344,-0.175781 0.046875,-0.320313 0.046875,-0.4375 0,-0.308594 -0.128906,-0.46875 -0.375,-0.46875 -0.074219,0 -0.152344,0.023437 -0.234375,0.0625 -0.074219,0.03125 -0.160156,0.082031 -0.25,0.140625 -0.085937,0.0625 -0.179687,0.144531 -0.28125,0.234375 -0.09375,0.09375 -0.207031,0.210937 -0.328125,0.34375 L 0.265625,-5.25 c 0.207031,-0.214844 0.398438,-0.40625 0.578125,-0.5625 0.175781,-0.152344 0.34375,-0.28125 0.5,-0.375 0.152344,-0.101563 0.3125,-0.175781 0.46875,-0.21875 0.152344,-0.050781 0.320313,-0.078125 0.5,-0.078125 0.308594,0 0.550781,0.105469 0.71875,0.3125 0.175781,0.210937 0.265625,0.480469 0.265625,0.8125 0,0.085937 -0.011719,0.175781 -0.03125,0.265625 C 3.253906,-5 3.226563,-4.910156 3.1875,-4.828125 Z"
           id="path57"
           inkscape:connector-curvature="0" />
      </symbol>
      <symbol
         overflow="visible"
         id="glyph2-2"
         style="overflow:visible">
        <path
           style="stroke:none"
           d="m 2.234375,-3.21875 c 0,1.492187 0.238281,2.714844 0.71875,3.671875 0.476563,0.957031 1.207031,1.597656 2.1875,1.921875 l -0.15625,0.5 C 3.742188,2.539063 2.789063,1.835938 2.125,0.765625 1.46875,-0.304688 1.140625,-1.613281 1.140625,-3.15625 1.140625,-4.675781 1.46875,-5.976563 2.125,-7.0625 2.789063,-8.144531 3.742188,-8.847656 4.984375,-9.171875 L 5.15625,-8.6875 c -0.992187,0.335937 -1.726562,0.976562 -2.203125,1.921875 -0.480469,0.9375 -0.71875,2.121094 -0.71875,3.546875 z"
           id="path60"
           inkscape:connector-curvature="0" />
      </symbol>
      <symbol
         overflow="visible"
         id="glyph2-3"
         style="overflow:visible">
        <path
           style="stroke:none"
           d="m 3.953125,-8.96875 -0.3125,1.359375 -1.265625,0 0.296875,-1.359375 z m -1.53125,6.78125 c -0.0625,0.25 -0.105469,0.449219 -0.125,0.59375 -0.023437,0.148437 -0.03125,0.285156 -0.03125,0.40625 0,0.15625 0.03125,0.273437 0.09375,0.34375 0.058594,0.074219 0.160156,0.109375 0.296875,0.109375 0.070313,0 0.144531,-0.015625 0.21875,-0.046875 0.082031,-0.027344 0.164063,-0.078125 0.25,-0.140625 0.082031,-0.058594 0.175781,-0.140625 0.28125,-0.234375 0.101563,-0.101563 0.222656,-0.226563 0.359375,-0.375 L 4.1875,-1.109375 c -0.21875,0.230469 -0.425781,0.425781 -0.609375,0.578125 -0.179687,0.148437 -0.347656,0.273437 -0.5,0.375 -0.15625,0.09375 -0.316406,0.16015625 -0.46875,0.203125 -0.15625,0.0390625 -0.324219,0.0625 -0.5,0.0625 -0.15625,0 -0.304687,-0.0351562 -0.4375,-0.09375 C 1.546875,-0.0351563 1.433594,-0.113281 1.34375,-0.21875 1.25,-0.320313 1.175781,-0.445313 1.125,-0.59375 1.070313,-0.738281 1.046875,-0.894531 1.046875,-1.0625 1.046875,-1.207031 1.0625,-1.378906 1.09375,-1.578125 1.132813,-1.785156 1.179688,-2.007813 1.234375,-2.25 1.285156,-2.496094 1.34375,-2.753906 1.40625,-3.015625 1.464844,-3.285156 1.53125,-3.550781 1.59375,-3.8125 1.652344,-4.082031 1.707031,-4.335938 1.75,-4.578125 1.800781,-4.816406 1.835938,-5.039063 1.859375,-5.25 1.867188,-5.277344 1.875,-5.3125 1.875,-5.34375 c 0,-0.027344 0,-0.054688 0,-0.078125 C 1.863281,-5.585938 1.804688,-5.707031 1.703125,-5.78125 1.597656,-5.863281 1.402344,-5.910156 1.125,-5.921875 l 0.078125,-0.421875 1.84375,-0.078125 0.3125,0 z"
           id="path63"
           inkscape:connector-curvature="0" />
      </symbol>
      <symbol
         overflow="visible"
         id="glyph2-4"
         style="overflow:visible">
        <path
           style="stroke:none"
           d="m 3.15625,-3.21875 c 0,-1.425781 -0.242187,-2.609375 -0.71875,-3.546875 C 1.96875,-7.710938 1.230469,-8.351563 0.234375,-8.6875 L 0.40625,-9.171875 c 1.238281,0.324219 2.1875,1.027344 2.84375,2.109375 0.664063,1.085937 1,2.386719 1,3.90625 0,1.542969 -0.335937,2.851562 -1,3.921875 C 2.59375,1.835938 1.644531,2.539063 0.40625,2.875 L 0.265625,2.375 C 1.242188,2.050781 1.96875,1.410156 2.4375,0.453125 2.914063,-0.503906 3.15625,-1.726563 3.15625,-3.21875 Z"
           id="path66"
           inkscape:connector-curvature="0" />
      </symbol>
      <symbol
         overflow="visible"
         id="glyph2-5"
         style="overflow:visible">
        <path
           style="stroke:none"
           d="m 2.625,-1.765625 c -0.042969,0.210937 -0.074219,0.378906 -0.09375,0.5 C 2.507813,-1.140625 2.5,-1.019531 2.5,-0.90625 c 0,0.179687 0.050781,0.308594 0.15625,0.390625 0.101563,0.074219 0.28125,0.117187 0.53125,0.125 L 3.09375,0 0.421875,0 0.484375,-0.390625 C 0.617188,-0.410156 0.726563,-0.4375 0.8125,-0.46875 0.894531,-0.496094 0.96875,-0.554688 1.03125,-0.640625 1.089844,-0.730469 1.148438,-0.867188 1.203125,-1.046875 1.261719,-1.230469 1.332031,-1.492188 1.40625,-1.828125 l 1.03125,-4.625 c 0.039063,-0.183594 0.070313,-0.347656 0.09375,-0.484375 0.027344,-0.144531 0.046875,-0.269531 0.046875,-0.375 0,-0.183594 -0.054687,-0.316406 -0.15625,-0.390625 -0.09375,-0.082031 -0.273437,-0.125 -0.53125,-0.125 l 0.09375,-0.40625 2.6875,0 -0.078125,0.375 c -0.105469,0.03125 -0.195312,0.058594 -0.265625,0.078125 -0.0625,0.023437 -0.121094,0.050781 -0.171875,0.078125 -0.054687,0.03125 -0.101562,0.082031 -0.140625,0.140625 -0.03125,0.054687 -0.070312,0.132812 -0.109375,0.234375 -0.03125,0.105469 -0.070312,0.230469 -0.109375,0.375 -0.03125,0.148437 -0.074219,0.332031 -0.125,0.546875 z"
           id="path69"
           inkscape:connector-curvature="0" />
      </symbol>
      <symbol
         overflow="visible"
         id="glyph2-6"
         style="overflow:visible">
        <path
           style="stroke:none"
           d="m 1.3125,-1.96875 c 0.00781,0.511719 0.140625,0.882812 0.390625,1.109375 0.257813,0.230469 0.660156,0.34375 1.203125,0.34375 0.269531,0 0.515625,-0.035156 0.734375,-0.109375 0.226563,-0.070313 0.414063,-0.175781 0.5625,-0.3125 0.152344,-0.132813 0.269531,-0.296875 0.34375,-0.484375 0.082031,-0.195313 0.125,-0.414063 0.125,-0.65625 0,-0.175781 -0.023437,-0.332031 -0.0625,-0.46875 C 4.566406,-2.679688 4.492188,-2.816406 4.390625,-2.953125 4.285156,-3.085938 4.136719,-3.222656 3.953125,-3.359375 3.773438,-3.503906 3.554688,-3.660156 3.296875,-3.828125 3.023438,-3.980469 2.789063,-4.144531 2.59375,-4.3125 c -0.199219,-0.164063 -0.367187,-0.332031 -0.5,-0.5 -0.125,-0.175781 -0.222656,-0.359375 -0.28125,-0.546875 -0.0625,-0.195313 -0.09375,-0.40625 -0.09375,-0.625 0,-0.351563 0.066406,-0.671875 0.203125,-0.953125 0.144531,-0.289063 0.34375,-0.539063 0.59375,-0.75 0.257813,-0.214844 0.578125,-0.382813 0.953125,-0.5 0.371094,-0.113281 0.785156,-0.171875 1.234375,-0.171875 0.402344,0 0.789063,0.035156 1.15625,0.09375 0.371094,0.0625 0.765625,0.164062 1.171875,0.296875 l -0.359375,1.609375 -0.703125,0 C 5.957031,-6.585938 5.917969,-6.785156 5.859375,-6.953125 5.796875,-7.128906 5.707031,-7.269531 5.59375,-7.375 5.488281,-7.488281 5.351563,-7.570313 5.1875,-7.625 5.019531,-7.675781 4.816406,-7.703125 4.578125,-7.703125 c -0.25,0 -0.480469,0.039062 -0.6875,0.109375 -0.199219,0.0625 -0.371094,0.160156 -0.515625,0.28125 -0.136719,0.125 -0.246094,0.277344 -0.328125,0.453125 -0.074219,0.167969 -0.109375,0.355469 -0.109375,0.5625 0,0.15625 0.015625,0.304687 0.046875,0.4375 0.039063,0.136719 0.109375,0.269531 0.203125,0.390625 0.089844,0.117187 0.21875,0.242187 0.375,0.375 0.164063,0.125 0.375,0.261719 0.625,0.40625 0.300781,0.1875 0.5625,0.371094 0.78125,0.546875 0.214844,0.167969 0.394531,0.347656 0.53125,0.53125 0.144531,0.179687 0.25,0.371094 0.3125,0.578125 0.058594,0.199219 0.09375,0.429687 0.09375,0.6875 0,0.367187 -0.074219,0.707031 -0.21875,1.015625 -0.148437,0.304687 -0.355469,0.566406 -0.625,0.78125 -0.273437,0.21875 -0.597656,0.394531 -0.96875,0.515625 -0.375,0.1132813 -0.792969,0.171875 -1.25,0.171875 -0.386719,0 -0.804687,-0.039062 -1.25,-0.109375 C 1.144531,-0.0273438 0.699219,-0.125 0.265625,-0.25 l 0.375,-1.71875 z"
           id="path72"
           inkscape:connector-curvature="0" />
      </symbol>
      <symbol
         overflow="visible"
         id="glyph2-7"
         style="overflow:visible">
        <path
           style="stroke:none"
           d="m 3.625,0.140625 c -0.429687,0 -0.816406,-0.0664062 -1.15625,-0.1875 -0.335937,-0.121094 -0.621094,-0.300781 -0.859375,-0.53125 -0.230469,-0.238281 -0.414062,-0.53125 -0.546875,-0.875 -0.125,-0.351563 -0.1875,-0.75 -0.1875,-1.1875 0,-0.363281 0.035156,-0.757813 0.109375,-1.1875 0.070313,-0.425781 0.1875,-0.847656 0.34375,-1.265625 0.152344,-0.425781 0.351563,-0.832031 0.59375,-1.21875 0.238281,-0.394531 0.523438,-0.742188 0.859375,-1.046875 0.339844,-0.300781 0.734375,-0.539063 1.171875,-0.71875 0.433594,-0.183594 0.929688,-0.28125 1.484375,-0.28125 0.445313,0 0.84375,0.070312 1.1875,0.203125 0.339844,0.136719 0.628906,0.324219 0.859375,0.5625 0.226563,0.242187 0.398438,0.535156 0.515625,0.875 0.113281,0.34375 0.171875,0.726562 0.171875,1.140625 0,0.34375 -0.039062,0.726562 -0.109375,1.140625 C 8,-4.03125 7.894531,-3.613281 7.75,-3.1875 c -0.148437,0.417969 -0.339844,0.832031 -0.578125,1.234375 -0.242187,0.398437 -0.527344,0.753906 -0.859375,1.0625 -0.335937,0.3125 -0.726562,0.566406 -1.171875,0.75 -0.4375,0.1835938 -0.945312,0.28125 -1.515625,0.28125 z m -1.421875,-2.5 c 0,0.617187 0.117188,1.074219 0.359375,1.375 0.238281,0.304687 0.609375,0.453125 1.109375,0.453125 0.351563,0 0.675781,-0.082031 0.96875,-0.25 0.300781,-0.164063 0.570313,-0.390625 0.8125,-0.671875 0.238281,-0.277344 0.445313,-0.601563 0.625,-0.96875 C 6.253906,-2.785156 6.398438,-3.164063 6.515625,-3.5625 6.636719,-3.957031 6.726563,-4.351563 6.78125,-4.75 6.839844,-5.144531 6.875,-5.515625 6.875,-5.859375 c 0,-0.601563 -0.128906,-1.0625 -0.375,-1.375 -0.242187,-0.308594 -0.605469,-0.46875 -1.09375,-0.46875 -0.386719,0 -0.738281,0.089844 -1.046875,0.265625 -0.304687,0.179687 -0.574219,0.417969 -0.8125,0.71875 -0.230469,0.292969 -0.433594,0.632812 -0.609375,1.015625 -0.167969,0.375 -0.308594,0.761719 -0.421875,1.15625 -0.117187,0.386719 -0.199219,0.773437 -0.25,1.15625 -0.042969,0.386719 -0.0625,0.730469 -0.0625,1.03125 z"
           id="path75"
           inkscape:connector-curvature="0" />
      </symbol>
      <symbol
         overflow="visible"
         id="glyph2-8"
         style="overflow:visible">
        <path
           style="stroke:none"
           d="M 5.796875,-1.90625 5.390625,0 0.359375,0 0.1875,-0.375 C 0.589844,-0.820313 1.015625,-1.285156 1.453125,-1.765625 1.886719,-2.253906 2.320313,-2.726563 2.75,-3.1875 3.175781,-3.652344 3.582031,-4.101563 3.96875,-4.53125 4.363281,-4.957031 4.722656,-5.34375 5.046875,-5.6875 5.023438,-5.695313 5.007813,-5.707031 5,-5.71875 l -1.625,0 c -0.1875,0 -0.351562,0.019531 -0.484375,0.046875 C 2.765625,-5.640625 2.644531,-5.582031 2.53125,-5.5 2.425781,-5.414063 2.316406,-5.292969 2.203125,-5.140625 2.097656,-4.984375 1.976563,-4.777344 1.84375,-4.53125 l -0.65625,0 0.40625,-1.8125 4.9375,0 0.140625,0.375 c -0.273437,0.3125 -0.539062,0.613281 -0.796875,0.890625 -0.25,0.273437 -0.503906,0.542969 -0.75,0.8125 -0.242187,0.273437 -0.488281,0.542969 -0.734375,0.8125 -0.25,0.273437 -0.511719,0.554687 -0.78125,0.84375 -0.261719,0.292969 -0.539062,0.601562 -0.828125,0.921875 -0.292969,0.3125 -0.605469,0.652344 -0.9375,1.015625 0.00781,0.023437 0.019531,0.03125 0.03125,0.03125 l 1.5625,0 c 0.164063,0 0.304688,0 0.421875,0 0.113281,0 0.210938,-0.007813 0.296875,-0.03125 0.089844,-0.019531 0.175781,-0.050781 0.25,-0.09375 0.082031,-0.050781 0.15625,-0.125 0.21875,-0.21875 0.070313,-0.101563 0.148438,-0.226563 0.234375,-0.375 0.082031,-0.144531 0.175781,-0.328125 0.28125,-0.546875 z"
           id="path78"
           inkscape:connector-curvature="0" />
      </symbol>
      <symbol
         overflow="visible"
         id="glyph2-9"
         style="overflow:visible">
        <path
           style="stroke:none"
           d="m 5.734375,-4.75 c 0.527344,0.210937 0.921875,0.488281 1.171875,0.828125 0.246094,0.335937 0.375,0.726562 0.375,1.171875 0,0.40625 -0.074219,0.789062 -0.21875,1.140625 -0.136719,0.34375 -0.339844,0.648437 -0.609375,0.90625 -0.261719,0.25 -0.574219,0.449219 -0.9375,0.59375 -0.367187,0.1445313 -0.773437,0.21875 -1.21875,0.21875 -0.367187,0 -0.699219,-0.0351562 -1,-0.09375 C 2.992188,-0.0351563 2.683594,-0.128906 2.375,-0.265625 L 1.703125,2.71875 0.5,2.71875 2.390625,-5.71875 c 0.277344,-1.214844 0.71875,-2.113281 1.3125,-2.6875 0.589844,-0.582031 1.34375,-0.875 2.25,-0.875 0.351563,0 0.671875,0.042969 0.953125,0.125 0.277344,0.074219 0.519531,0.195312 0.71875,0.359375 0.195313,0.15625 0.347656,0.351562 0.453125,0.578125 0.101563,0.21875 0.15625,0.472656 0.15625,0.75 0,0.273437 -0.050781,0.539062 -0.140625,0.796875 C 8.007813,-6.410156 7.867188,-6.164063 7.671875,-5.9375 7.472656,-5.707031 7.214844,-5.496094 6.90625,-5.3125 6.59375,-5.125 6.207031,-4.960938 5.75,-4.828125 Z M 4.4375,-5.125 c 0.382813,-0.027344 0.734375,-0.109375 1.046875,-0.234375 0.320313,-0.132813 0.59375,-0.304688 0.8125,-0.515625 0.226563,-0.207031 0.40625,-0.453125 0.53125,-0.734375 0.121094,-0.277344 0.1875,-0.585938 0.1875,-0.921875 0,-0.371094 -0.097656,-0.65625 -0.28125,-0.84375 -0.1875,-0.195313 -0.464844,-0.296875 -0.828125,-0.296875 -0.585937,0 -1.070312,0.257812 -1.453125,0.765625 -0.375,0.511719 -0.667969,1.273437 -0.875,2.28125 l -0.875,3.984375 c -0.023437,0.074219 -0.039062,0.136719 -0.046875,0.1875 0,0.054687 0,0.101562 0,0.140625 0,0.21875 0.117188,0.410156 0.359375,0.5625 0.238281,0.148437 0.597656,0.21875 1.078125,0.21875 0.289063,0 0.550781,-0.050781 0.78125,-0.15625 C 5.113281,-0.800781 5.316406,-0.960938 5.484375,-1.171875 5.648438,-1.378906 5.78125,-1.632813 5.875,-1.9375 c 0.089844,-0.300781 0.140625,-0.640625 0.140625,-1.015625 0,-0.488281 -0.148437,-0.875 -0.4375,-1.15625 -0.292969,-0.277344 -0.710937,-0.4375 -1.25,-0.46875 z"
           id="path81"
           inkscape:connector-curvature="0" />
      </symbol>
      <symbol
         overflow="visible"
         id="glyph2-10"
         style="overflow:visible">
        <path
           style="stroke:none"
           d="m 1.078125,-3.234375 0,-0.96875 7.3125,0 0,0.96875 z"
           id="path84"
           inkscape:connector-curvature="0" />
      </symbol>
      <symbol
         overflow="visible"
         id="glyph2-11"
         style="overflow:visible">
        <path
           style="stroke:none"
           d="m 4.640625,-1.671875 c 0,0.125 0.00391,0.242187 0.015625,0.34375 0.00781,0.09375 0.019531,0.175781 0.03125,0.234375 0.019531,0.0625 0.046875,0.121094 0.078125,0.171875 0.027344,0.042969 0.066406,0.082031 0.109375,0.109375 0.050781,0.054687 0.117188,0.097656 0.203125,0.125 0.089844,0.03125 0.203125,0.058594 0.328125,0.078125 0.132813,0.011719 0.289063,0.023437 0.46875,0.03125 0.183594,0.011719 0.410156,0.023437 0.671875,0.03125 l 0,0.546875 -5.03125,0 0,-0.546875 c 0.246094,-0.007813 0.457031,-0.019531 0.625,-0.03125 C 2.316406,-0.585938 2.46875,-0.601563 2.59375,-0.625 2.714844,-0.644531 2.816406,-0.664063 2.890625,-0.6875 2.960938,-0.707031 3.023438,-0.738281 3.078125,-0.78125 3.136719,-0.808594 3.191406,-0.847656 3.234375,-0.890625 3.273438,-0.941406 3.304688,-1 3.328125,-1.0625 c 0.027344,-0.070313 0.050781,-0.15625 0.0625,-0.25 0.019531,-0.089844 0.03125,-0.210938 0.03125,-0.359375 l 0,-4.5625 C 3.421875,-6.386719 3.382813,-6.5 3.3125,-6.5625 3.25,-6.632813 3.160156,-6.671875 3.046875,-6.671875 c -0.136719,0 -0.335937,0.070312 -0.59375,0.203125 -0.25,0.136719 -0.585937,0.335937 -1,0.59375 C 1.398438,-5.964844 1.347656,-6.0625 1.296875,-6.15625 1.253906,-6.257813 1.207031,-6.363281 1.15625,-6.46875 1.683594,-6.746094 2.207031,-7.03125 2.71875,-7.3125 3.226563,-7.601563 3.75,-7.890625 4.28125,-8.171875 l 0.390625,0 c -0.011719,0.230469 -0.023437,0.441406 -0.03125,0.625 0,0.179687 0,0.355469 0,0.53125 0,0.179687 0,0.351562 0,0.515625 z"
           id="path87"
           inkscape:connector-curvature="0" />
      </symbol>
    </g>
  </defs>
  <g
     id="g92"
     style="fill:#000000;fill-opacity:1"
     transform="translate(-190,-208.36563)">
    <use
       height="100%"
       width="100%"
       id="use94"
       y="241.73"
       x="189.5"
       xlink:href="#glyph0-1" />
    <use
       height="100%"
       width="100%"
       id="use96"
       y="241.73"
       x="201.02"
       xlink:href="#glyph0-1" />
    <use
       height="100%"
       width="100%"
       id="use98"
       y="241.73"
       x="212.53999"
       xlink:href="#glyph0-2" />
  </g>
  <g
     id="g100"
     style="fill:#000000;fill-opacity:1"
     transform="translate(-190,-208.36563)">
    <use
       height="100%"
       width="100%"
       id="use102"
       y="241.73"
       x="229.13"
       xlink:href="#glyph0-3" />
  </g>
  <g
     id="g104"
     style="fill:#000000;fill-opacity:1"
     transform="translate(-190,-208.36563)">
    <use
       height="100%"
       width="100%"
       id="use106"
       y="241.73"
       x="247.61"
       xlink:href="#glyph0-4" />
  </g>
  <g
     id="g108"
     style="fill:#000000;fill-opacity:1"
     transform="translate(-190,-208.36563)">
    <use
       height="100%"
       width="100%"
       id="use110"
       y="264.64999"
       x="248.45"
       xlink:href="#glyph1-1" />
  </g>
  <g
     id="g112"
     style="fill:#000000;fill-opacity:1"
     transform="translate(-190,-208.36563)">
    <use
       height="100%"
       width="100%"
       id="use114"
       y="264.64999"
       x="253.49001"
       xlink:href="#glyph1-2" />
  </g>
  <g
     id="g116"
     style="fill:#000000;fill-opacity:1"
     transform="translate(-190,-208.36563)">
    <use
       height="100%"
       width="100%"
       id="use118"
       y="264.64999"
       x="263.09"
       xlink:href="#glyph1-3" />
  </g>
  <g
     id="g120"
     style="fill:#000000;fill-opacity:1"
     transform="translate(-190,-208.36563)">
    <use
       height="100%"
       width="100%"
       id="use122"
       y="214.85001"
       x="255.17"
       xlink:href="#glyph2-1" />
  </g>
  <g
     id="g124"
     style="fill:#000000;fill-opacity:1"
     transform="translate(-190,-208.36563)">
    <use
       height="100%"
       width="100%"
       id="use126"
       y="241.73"
       x="274.48999"
       xlink:href="#glyph0-5" />
  </g>
  <g
     id="g128"
     style="fill:#000000;fill-opacity:1"
     transform="translate(-190,-208.36563)">
    <use
       height="100%"
       width="100%"
       id="use130"
       y="245.45"
       x="282.41"
       xlink:href="#glyph2-2" />
  </g>
  <g
     id="g132"
     style="fill:#000000;fill-opacity:1"
     transform="translate(-190,-208.36563)">
    <use
       height="100%"
       width="100%"
       id="use134"
       y="245.45"
       x="287.92999"
       xlink:href="#glyph2-3" />
  </g>
  <g
     id="g136"
     style="fill:#000000;fill-opacity:1"
     transform="translate(-190,-208.36563)">
    <use
       height="100%"
       width="100%"
       id="use138"
       y="245.45"
       x="292.97"
       xlink:href="#glyph2-4" />
  </g>
  <g
     id="g140"
     style="fill:#000000;fill-opacity:1"
     transform="translate(-190,-208.36563)">
    <use
       height="100%"
       width="100%"
       id="use142"
       y="241.73"
       x="299.20999"
       xlink:href="#glyph0-6" />
  </g>
  <g
     id="g144"
     style="fill:#000000;fill-opacity:1"
     transform="translate(-190,-208.36563)">
    <use
       height="100%"
       width="100%"
       id="use146"
       y="241.73"
       x="305.92999"
       xlink:href="#glyph0-1" />
    <use
       height="100%"
       width="100%"
       id="use148"
       y="241.73"
       x="317.45001"
       xlink:href="#glyph0-1" />
    <use
       height="100%"
       width="100%"
       id="use150"
       y="241.73"
       x="328.97"
       xlink:href="#glyph0-2" />
  </g>
  <g
     id="g152"
     style="fill:#000000;fill-opacity:1"
     transform="translate(-190,-208.36563)">
    <use
       height="100%"
       width="100%"
       id="use154"
       y="245.45"
       x="338.69"
       xlink:href="#glyph2-5" />
    <use
       height="100%"
       width="100%"
       id="use156"
       y="245.45"
       x="343.8512"
       xlink:href="#glyph2-6" />
    <use
       height="100%"
       width="100%"
       id="use158"
       y="245.45"
       x="351.15079"
       xlink:href="#glyph2-7" />
  </g>
  <g
     id="g160"
     style="fill:#000000;fill-opacity:1"
     transform="translate(-190,-208.36563)">
    <use
       height="100%"
       width="100%"
       id="use162"
       y="245.45"
       x="360.41"
       xlink:href="#glyph2-2" />
  </g>
  <g
     id="g164"
     style="fill:#000000;fill-opacity:1"
     transform="translate(-190,-208.36563)">
    <use
       height="100%"
       width="100%"
       id="use166"
       y="245.45"
       x="365.92999"
       xlink:href="#glyph2-3" />
  </g>
  <g
     id="g168"
     style="fill:#000000;fill-opacity:1"
     transform="translate(-190,-208.36563)">
    <use
       height="100%"
       width="100%"
       id="use170"
       y="245.45"
       x="371.09"
       xlink:href="#glyph2-4" />
  </g>
  <g
     id="g172"
     style="fill:#000000;fill-opacity:1"
     transform="translate(-190,-208.36563)">
    <use
       height="100%"
       width="100%"
       id="use174"
       y="241.73"
       x="377.32999"
       xlink:href="#glyph0-6" />
  </g>
  <path
     inkscape:connector-curvature="0"
     id="path176"
     d="m 296.16016,5.2124889 c 2.39843,2.0625 4.32031,5.1406301 5.73046,9.2304701 1.41797,4.08985 2.1211,8.66016 2.1211,13.69141 0,4.96875 -0.70313,9.51953 -2.1211,13.67969 -1.41015,4.14843 -3.33203,7.25 -5.73046,9.30078 l -0.42188,-0.65235 c 2.08203,-2.11718 3.69141,-5.17968 4.8125,-9.1875 1.12891,-4 1.6875,-8.3789 1.6875,-13.1289 0,-4.85156 -0.56641,-9.25 -1.69922,-13.19141 -1.1289,-3.9414 -2.73047,-6.9609401 -4.80078,-9.0820301 z m -92.82032,0 0.41016,0.66016 c -2.07031,2.12109 -3.67969,5.1406301 -4.80078,9.0820301 -1.12891,3.94141 -1.69922,8.33985 -1.69922,13.19141 0,4.75 0.57031,9.1289 1.69141,13.1289 1.1289,4.00782 2.73046,7.07032 4.80859,9.1875 l -0.41016,0.65235 c -2.41015,-2.05078 -4.32031,-5.15235 -5.73828,-9.30078 -1.41015,-4.16016 -2.12109,-8.71094 -2.12109,-13.67969 0,-5.03125 0.71094,-9.60156 2.12109,-13.69141 1.41797,-4.08984 3.32813,-7.1679701 5.73828,-9.2304701 z"
     style="fill:#000000;fill-opacity:1;fill-rule:evenodd;stroke:none" />
  <path
     inkscape:connector-curvature="0"
     id="path178"
     d="m 204.32031,27.556239 90.83985,0 0,1.19922 -90.83985,0 z"
     style="fill:#000000;fill-opacity:1;fill-rule:evenodd;stroke:none" />
  <g
     id="g180"
     style="fill:#000000;fill-opacity:1"
     transform="translate(-190,-208.36563)">
    <use
       height="100%"
       width="100%"
       id="use182"
       y="227.09"
       x="407.35001"
       xlink:href="#glyph0-5" />
  </g>
  <g
     id="g184"
     style="fill:#000000;fill-opacity:1"
     transform="translate(-190,-208.36563)">
    <use
       height="100%"
       width="100%"
       id="use186"
       y="230.81"
       x="415.26999"
       xlink:href="#glyph2-2" />
  </g>
  <g
     id="g188"
     style="fill:#000000;fill-opacity:1"
     transform="translate(-190,-208.36563)">
    <use
       height="100%"
       width="100%"
       id="use190"
       y="230.81"
       x="420.79001"
       xlink:href="#glyph2-3" />
  </g>
  <g
     id="g192"
     style="fill:#000000;fill-opacity:1"
     transform="translate(-190,-208.36563)">
    <use
       height="100%"
       width="100%"
       id="use194"
       y="230.81"
       x="425.82999"
       xlink:href="#glyph2-4" />
  </g>
  <g
     id="g196"
     style="fill:#000000;fill-opacity:1"
     transform="translate(-190,-208.36563)">
    <use
       height="100%"
       width="100%"
       id="use198"
       y="227.09"
       x="432.07001"
       xlink:href="#glyph0-6" />
  </g>
  <g
     id="g200"
     style="fill:#000000;fill-opacity:1"
     transform="translate(-190,-208.36563)">
    <use
       height="100%"
       width="100%"
       id="use202"
       y="227.09"
       x="438.79001"
       xlink:href="#glyph0-7" />
  </g>
  <g
     id="g204"
     style="fill:#000000;fill-opacity:1"
     transform="translate(-190,-208.36563)">
    <use
       height="100%"
       width="100%"
       id="use206"
       y="227.09"
       x="454.26999"
       xlink:href="#glyph0-6" />
  </g>
  <g
     id="g208"
     style="fill:#000000;fill-opacity:1"
     transform="translate(-190,-208.36563)">
    <use
       height="100%"
       width="100%"
       id="use210"
       y="227.09"
       x="460.98999"
       xlink:href="#glyph0-8" />
  </g>
  <g
     id="g212"
     style="fill:#000000;fill-opacity:1"
     transform="translate(-190,-208.36563)">
    <use
       height="100%"
       width="100%"
       id="use214"
       y="253.73"
       x="394.39001"
       xlink:href="#glyph0-9" />
  </g>
  <g
     id="g216"
     style="fill:#000000;fill-opacity:1"
     transform="translate(-190,-208.36563)">
    <use
       height="100%"
       width="100%"
       id="use218"
       y="257.45001"
       x="407.10999"
       xlink:href="#glyph2-2" />
  </g>
  <g
     id="g220"
     style="fill:#000000;fill-opacity:1"
     transform="translate(-190,-208.36563)">
    <use
       height="100%"
       width="100%"
       id="use222"
       y="257.45001"
       x="412.63"
       xlink:href="#glyph2-3" />
  </g>
  <g
     id="g224"
     style="fill:#000000;fill-opacity:1"
     transform="translate(-190,-208.36563)">
    <use
       height="100%"
       width="100%"
       id="use226"
       y="257.45001"
       x="417.54999"
       xlink:href="#glyph2-4" />
  </g>
  <g
     id="g228"
     style="fill:#000000;fill-opacity:1"
     transform="translate(-190,-208.36563)">
    <use
       height="100%"
       width="100%"
       id="use230"
       y="253.73"
       x="423.79001"
       xlink:href="#glyph0-6" />
  </g>
  <g
     id="g232"
     style="fill:#000000;fill-opacity:1"
     transform="translate(-190,-208.36563)">
    <use
       height="100%"
       width="100%"
       id="use234"
       y="253.73"
       x="430.63"
       xlink:href="#glyph0-10" />
  </g>
  <g
     id="g236"
     style="fill:#000000;fill-opacity:1"
     transform="translate(-190,-208.36563)">
    <use
       height="100%"
       width="100%"
       id="use238"
       y="257.45001"
       x="439.75"
       xlink:href="#glyph2-8" />
    <use
       height="100%"
       width="100%"
       id="use240"
       y="257.45001"
       x="446.73279"
       xlink:href="#glyph2-5" />
    <use
       height="100%"
       width="100%"
       id="use242"
       y="257.45001"
       x="451.89401"
       xlink:href="#glyph2-6" />
  </g>
  <g
     id="g244"
     style="fill:#000000;fill-opacity:1"
     transform="translate(-190,-208.36563)">
    <use
       height="100%"
       width="100%"
       id="use246"
       y="257.45001"
       x="459.0748"
       xlink:href="#glyph2-7" />
  </g>
  <g
     id="g248"
     style="fill:#000000;fill-opacity:1"
     transform="translate(-190,-208.36563)">
    <use
       height="100%"
       width="100%"
       id="use250"
       y="257.45001"
       x="468.42999"
       xlink:href="#glyph2-2" />
  </g>
  <g
     id="g252"
     style="fill:#000000;fill-opacity:1"
     transform="translate(-190,-208.36563)">
    <use
       height="100%"
       width="100%"
       id="use254"
       y="257.45001"
       x="473.95001"
       xlink:href="#glyph2-3" />
  </g>
  <g
     id="g256"
     style="fill:#000000;fill-opacity:1"
     transform="translate(-190,-208.36563)">
    <use
       height="100%"
       width="100%"
       id="use258"
       y="257.45001"
       x="478.98999"
       xlink:href="#glyph2-4" />
  </g>
  <g
     id="g260"
     style="fill:#000000;fill-opacity:1"
     transform="translate(-190,-208.36563)">
    <use
       height="100%"
       width="100%"
       id="use262"
       y="217.73"
       x="495.54999"
       xlink:href="#glyph2-9" />
  </g>
  <g
     id="g264"
     style="fill:#000000;fill-opacity:1"
     transform="translate(-190,-208.36563)">
    <use
       height="100%"
       width="100%"
       id="use266"
       y="217.73"
       x="505.03"
       xlink:href="#glyph2-10" />
  </g>
  <g
     id="g268"
     style="fill:#000000;fill-opacity:1"
     transform="translate(-190,-208.36563)">
    <use
       height="100%"
       width="100%"
       id="use270"
       y="217.73"
       x="514.63"
       xlink:href="#glyph2-11" />
  </g>
</svg>
